/tts1/tts1/mano/Debugging/Again/LipSync_W1L1/Hybrid_Segmentation_template/../mfc/test_100_0049.mfc
/tts1/tts1/mano/Debugging/Again/LipSync_W1L1/Hybrid_Segmentation_template/../mfc/test_100_0050.mfc
/tts1/tts1/mano/Debugging/Again/LipSync_W1L1/Hybrid_Segmentation_template/../mfc/test_100_0051.mfc
/tts1/tts1/mano/Debugging/Again/LipSync_W1L1/Hybrid_Segmentation_template/../mfc/test_100_0052.mfc
/tts1/tts1/mano/Debugging/Again/LipSync_W1L1/Hybrid_Segmentation_template/../mfc/test_100_0053.mfc
/tts1/tts1/mano/Debugging/Again/LipSync_W1L1/Hybrid_Segmentation_template/../mfc/test_100_0054.mfc
/tts1/tts1/mano/Debugging/Again/LipSync_W1L1/Hybrid_Segmentation_template/../mfc/test_100_0055.mfc
/tts1/tts1/mano/Debugging/Again/LipSync_W1L1/Hybrid_Segmentation_template/../mfc/test_100_0056.mfc
/tts1/tts1/mano/Debugging/Again/LipSync_W1L1/Hybrid_Segmentation_template/../mfc/test_100_0057.mfc
/tts1/tts1/mano/Debugging/Again/LipSync_W1L1/Hybrid_Segmentation_template/../mfc/test_100_0058.mfc
/tts1/tts1/mano/Debugging/Again/LipSync_W1L1/Hybrid_Segmentation_template/../mfc/test_100_0059.mfc
/tts1/tts1/mano/Debugging/Again/LipSync_W1L1/Hybrid_Segmentation_template/../mfc/test_100_0060.mfc
/tts1/tts1/mano/Debugging/Again/LipSync_W1L1/Hybrid_Segmentation_template/../mfc/test_100_0061.mfc
/tts1/tts1/mano/Debugging/Again/LipSync_W1L1/Hybrid_Segmentation_template/../mfc/test_100_0062.mfc
/tts1/tts1/mano/Debugging/Again/LipSync_W1L1/Hybrid_Segmentation_template/../mfc/test_100_0063.mfc
/tts1/tts1/mano/Debugging/Again/LipSync_W1L1/Hybrid_Segmentation_template/../mfc/test_100_0064.mfc
