/tts1/tts1/mano/Debugging/Again/LipSync_W1L1/Hybrid_Segmentation_template/../mfc/test_100_0129.mfc
/tts1/tts1/mano/Debugging/Again/LipSync_W1L1/Hybrid_Segmentation_template/../mfc/test_100_0130.mfc
/tts1/tts1/mano/Debugging/Again/LipSync_W1L1/Hybrid_Segmentation_template/../mfc/test_100_0131.mfc
/tts1/tts1/mano/Debugging/Again/LipSync_W1L1/Hybrid_Segmentation_template/../mfc/test_100_0132.mfc
/tts1/tts1/mano/Debugging/Again/LipSync_W1L1/Hybrid_Segmentation_template/../mfc/test_100_0133.mfc
/tts1/tts1/mano/Debugging/Again/LipSync_W1L1/Hybrid_Segmentation_template/../mfc/test_100_0134.mfc
/tts1/tts1/mano/Debugging/Again/LipSync_W1L1/Hybrid_Segmentation_template/../mfc/test_100_0135.mfc
/tts1/tts1/mano/Debugging/Again/LipSync_W1L1/Hybrid_Segmentation_template/../mfc/test_100_0136.mfc
/tts1/tts1/mano/Debugging/Again/LipSync_W1L1/Hybrid_Segmentation_template/../mfc/test_100_0137.mfc
/tts1/tts1/mano/Debugging/Again/LipSync_W1L1/Hybrid_Segmentation_template/../mfc/test_100_0138.mfc
/tts1/tts1/mano/Debugging/Again/LipSync_W1L1/Hybrid_Segmentation_template/../mfc/test_100_0139.mfc
/tts1/tts1/mano/Debugging/Again/LipSync_W1L1/Hybrid_Segmentation_template/../mfc/test_100_0140.mfc
/tts1/tts1/mano/Debugging/Again/LipSync_W1L1/Hybrid_Segmentation_template/../mfc/test_100_0141.mfc
/tts1/tts1/mano/Debugging/Again/LipSync_W1L1/Hybrid_Segmentation_template/../mfc/test_100_0142.mfc
/tts1/tts1/mano/Debugging/Again/LipSync_W1L1/Hybrid_Segmentation_template/../mfc/test_100_0143.mfc
/tts1/tts1/mano/Debugging/Again/LipSync_W1L1/Hybrid_Segmentation_template/../mfc/test_100_0144.mfc
