( test_100_0001 " எனவே இன்ஜினியரிங் மெக்கானிக்ஸ் படிப்புக்கு வரவேற்கிறோம் " )
( test_100_0002 " நீங்கள் ஒரு புதிய பாடத்தை கற்கும் போது அந்த அறிவின் தொகுப்பை அடைவதற்கான வரலாற்றையும் மனிதப் போராட்டத்தையும் நீங்கள் அறிந்து கொள்வது விரும்பத்தக்கது " )
( test_100_0003 " இந்த ஸ்லைடுகளின் தொகுப்பில் இரண்டாயிரத்து ஐநூறு கிமு முதல் பல்வேறு கட்டமைப்புகளை நீங்கள் காண்கிறீர்கள் " )
( test_100_0004 " இது கிமு நானூற்று முப்பத்தெட்டு இல் பார்த்தீனான் இது ஆயிரத்து எண்ணூற்று எண்பத்தி ஒன்பது இல் பிரபலமான ஈஃபில் கோபுரம் மற்றும் இது துபாயில் கட்டப்பட்டு வரும் பாலம் இந்த ஸ்லைடுகளில் நீங்கள் பார்ப்பது என்னவென்றால் வடிவமைப்பின் சிக்கலானது ஒரே இடத்தில் நிற்கும் கற்களிலிருந்து பாலத்தின் மீது மனித புன்னகையை சித்தரிக்கும் அழகான கட்டுமானமாக அதிகரித்துள்ளது " )
( test_100_0005 " மற்றொரு அம்சம் என்னவென்றால் அவர்கள் பயன்படுத்திய பொருட்களிலும் நீங்கள் மாற்றத்தைக் காணலாம் " )
( test_100_0006 " ஈஃபில் கோபுரத்தில் எஃகு பயன்படுத்தப்படுவதை நீங்கள் காண்கிறீர்கள் மற்றும் நவீன கட்டுமானத்தில் அவர்கள் கான்கிரீட் மற்றும் எஃகு பயன்படுத்தியுள்ளனர் மற்றும் பல்வேறு அம்சங்கள் " )
( test_100_0007 " அது விரும்பத்தக்கது என்பது உங்களுக்குத் தெரியும் உங்களிடம் ஒரு பாடத்திட்டம் இருக்கும்போது அது ஒரு ரோலர் கோஸ்டர் போன்றது " )
( test_100_0008 " உங்களுக்கு ஏற்ற தாழ்வுகள் உள்ளன " )
( test_100_0009 " மேலும் இந்த மக்களின் மனதில் மகிழ்ச்சி உணர்வு உள்ளது நீங்கள் பாடத்தை கற்கும்போது இந்த மகிழ்ச்சியை நீங்கள் பெற வேண்டும் என்று நான் விரும்புகிறேன் ஏனெனில் கற்றல் ஒரு இன்பம் என்று நான் நம்புகிறேன் ரோலர் கோஸ்டரில் நீங்கள் என்ன பார்க்கிறீர்கள் ஆற்றல் பாதுகாப்பு சட்டத்தின் மூலம் நீங்கள் எளிதாக விளக்கலாம் மற்றும் உங்களில் பலருக்கு உங்கள் முந்தைய பயிற்சியிலிருந்து இது தெரியும் " )
( test_100_0010 " பொறியியல் கண்ணோட்டத்தில் ரோலர் கோஸ்டரின் இந்த எளிமைப்படுத்தப்பட்ட மாதிரியை நீங்கள் பார்க்க வேண்டும் " )
( test_100_0011 " இதில் மிகவும் சுவாரஸ்யமான மற்றும் குறிப்பிடத்தக்க ஒன்றை நீங்கள் பார்க்க முடியுமா " )
( test_100_0012 " நீங்கள் சிகரங்களைப் பார்த்தால் அவை புத்திசாலித்தனமாக வெவ்வேறு நிலைகளில் வைக்கப்படுகின்றன மேலும் சவாரியின் தொடக்கத்தில் அதிகபட்ச ஆற்றலுடன் நீங்கள் தொடங்குவதே முக்கிய காரணம் " )
( test_100_0013 " மேலும் கார் லூப்பை லூப் செய்யும் வகையில் உயரத்தைத் தேர்ந்தெடுக்கிறீர்கள் " )
( test_100_0014 " இதையெல்லாம் ஆரம்பத்தில் பிரிக்ஷன் புறக்கணிப்பதன் மூலம் நீங்கள் வசதியாக விளக்கலாம் " )
( test_100_0015 " அப்படித்தான் நாம் மாடலிங் செய்து நம் வாழ்க்கையை எளிமையாக்குகிறோம் " )
( test_100_0016 " மேலும் கண்கவர் தோல்விகள் ஏற்பட்டுள்ளன என்பதையும் நீங்கள் அறிந்து கொள்ள வேண்டும் கான்கிரீட் பாலத்தைப் பாருங்கள் இந்த கான்கிரீட் பாலம் ஒரு ஆஸிலேஷன்ஸ் வழியாக செல்கிறது நீங்கள் கவனமாக பார்க்க முடிந்தால் இதன் மையக் கோடு வழியாக ஒருவர் வருகிறார் அதுதான் இதன் முக்கிய அம்சம் " )
( test_100_0017 " ஒரு கார் இருந்தது இங்கே ஒரு கார் இருந்தது காருக்குள் ஒரு நாய் இருந்தது என்று கதை செல்கிறது " )
( test_100_0018 " அவர் அந்த நாயை மீட்க முயன்றார் மற்றும் அவர் அதிர்வு பேராசிரியராக இருந்தார் " )
( test_100_0019 " எனவே இந்த அதிர்வுறும் கட்டமைப்பை எவ்வாறு வழிநடத்துவது என்பது அவருக்குத் தெரியும் " )
( test_100_0020 " மேலும் கான்கிரீட் பாலத்தைப் பாருங்கள் இது இப்படி திரியும் என்று உங்களால் எப்போதாவது கற்பனை செய்ய முடிகிறதா " )
( test_100_0021 " மேலும் இவை அனைத்தும் ஒரு முன்னறிவிப்பு இல்லாமல் நடந்தது " )
( test_100_0022 " பாருங்கள் மனித நாகரீகம் வெற்றியை விட தோல்விகளில் இருந்து பல விஷயங்களைக் கற்றுக்கொண்டது " )
( test_100_0023 " மேலும் இது ஆயிரத்து தொள்ளாயிரத்து நாற்பதுகளில் கட்டப்பட்ட பாலம் " )
( test_100_0024 " அந்த நேரத்தில் காற்றின் வேகம் மணிக்கு நாற்பத்தி இரண்டு மைல்கள் மற்றும் பீரியட் ஆஃப் ஆஸிலேஷன்ஸ் சுமார் ஐந்து வினாடிகள் " )
( test_100_0025 " இது ஆயிரத்து தொள்ளாயிரத்து முப்பத்தி எட்டுஇல் தொடங்கப்பட்டது ஆயிரத்து தொள்ளாயிரத்து நாற்பது இல் ஜூலை மாதத்தில் போக்குவரத்துக்கு திறக்கப்பட்டது மற்றும் நவம்பர் மாதத்தில் அது செயலிழந்தது நான்கு மாதங்கள் மட்டுமே " )
( test_100_0026 " இது உண்மையில் வடிவமைப்பாளர்களுக்கு அதிர்ச்சி அலைகளை அனுப்பியது இந்த பாலத்தை வடிவமைக்கும் போது அவர்கள் கவனிக்காதது என்ன " )
( test_100_0027 " மேலும் சுவாரசியமான கதை என்னவென்றால் அது காலை பத்து மணிக்கு அதிர்வடைய ஆரம்பித்து சுமார் நாற்பது நிமிடங்கள் தொடர்ந்தது " )
( test_100_0028 " பாலத்தின் முனையில் ஒரு வீடியோ கடை இருந்தது அவர் ஏதோ நடப்பதைக் கண்டு அதை பதிவு செய்யத் தொடங்கினார் வீடியோ தரம் நன்றாக இல்லை என்று நீங்கள் நினைக்கலாம் ஆனால் நீங்கள் நேரத்தையும் இணைக்க வேண்டும் " )
( test_100_0029 " ஆயிரத்து தொள்ளாயிரத்து நாற்பதுல் அதுவே அவர்களிடம் இருந்த தரம் அதுவே பலருக்கு உண்மையான கற்றல் அனுபவமாக இருந்தது மேலும் இது டார்ஷனல் வைப்ரேஷன் தோல்வியடைந்தது " )
( test_100_0030 " மேலும் பாலம் முழுவதுமாக நீர்நிலைக்குள் இடிந்து விழுந்தது " )
( test_100_0031 " நீங்கள் வரலாற்றைப் பார்த்தால் எகிப்தியர்களுக்கு பாதுகாப்பான பரிமாணங்களை நிர்ணயிப்பதற்கான அனுபவ விதிகள் இருந்தன மேலும் அவர்கள் பெரிய பிரமிடுகளை உருவாக்கினர் " )
( test_100_0032 " இது கிமு இரண்டாயிரத்து ஐநூறுக்கு முந்தையது " )
( test_100_0033 " பின்னர் நீங்கள் என்ன கண்டுபிடிக்கிறீர்கள் " )
( test_100_0034 " கிரேக்கர்கள் கட்டிடக் கலையை மேலும் மேம்படுத்தினர் " )
( test_100_0035 " ஒரு வளைவுப் பாலம் கட்டியிருந்தார்கள் இது இன்னும் உயிர் பிழைத்துள்ளது நீங்கள் பார்க்க வேண்டியது என்னவென்றால் இந்த நேரத்தில் இது மிகவும் அற்பமானதாக தோன்றுகிறது ஆனால் இந்த பாலம் மூவாயிரத்து முந்நூறு ஆண்டுகளாக பயன்பாட்டில் உள்ளது " )
( test_100_0036 " இப்போது வளைவு பாலத்தின் பின்னால் உள்ள இயக்கவியல் என்ன என்பதை நாம் அறிவோம் இதில்ஒரு முக்கிய கல் உள்ளது " )
( test_100_0037 " இது உராய்வு மூலம் நடத்தப்படுகிறது மற்ற அனைத்து கற்களையும் பூட்டுகிறது " )
( test_100_0038 " இந்த புரிதல் இப்போது நம்மிடம் உள்ளது " )
( test_100_0039 " அந்தக் கால கட்டத்தில் அவர்களுக்கு என்ன மாதிரியான புரிதல் இருந்தது நமக்கு எந்த துப்பும் இல்லை " )
( test_100_0040 " நீங்கள் கண்டது என்னவென்றால் ரோமானியர்கள் சிறந்த கட்டிடக் கலைஞர்கள் மற்றும் பண்டைய நாகரிகத்திலும் உங்களுக்கு ஆர்செஸ் இருந்தன " )
( test_100_0041 " கிமு இரண்டு மில்லினியம் தொடங்கி மெசொப்பொத்தேமிய செங்கல் வேலைகள் இப்படித்தான் இருக்கும் ரோமானியர்கள் கட்டிய பல கட்டமைப்புகளில் இதை நீங்கள் காணலாம் " )
( test_100_0042 " அவர்களின் கட்டிடங்களில் பரவலாகப் பயன்படுத்தப்படும் வளைவுகள் " )
( test_100_0043 " நீங்கள் தெரிந்து கொள்ள வேண்டும் இப்போதெல்லாம் மிகவும் இலகுவான கட்டமைப்புகள் கட்டப்பட்டுள்ளன " )
( test_100_0044 " நீங்கள் மூலப்பொருள் சேமிக்க வேண்டும் பொறியியல் முன்னேறியுள்ளது என்பதால் " )
( test_100_0045 " ஆயினும்கூட நீங்கள் மக்களைப் பாராட்ட வேண்டும் அவர்களுக்கு பிரச்சனை ஏற்பட்ட போது அவர்களுக்கு ஒரு தீர்வு கிடைத்தது " )
( test_100_0046 " அந்த தீர்வு உகந்ததாக இருக்காது அது வேறு பிரச்சினை ஆனால் அவர்கள் சில விஷயங்களைச் செய்ய வேண்டிய கட்டாயத்தில் இருந்தபோது அவர்களுக்கு ஒரு தீர்வு இருந்தது " )
( test_100_0047 " கிரேக்கர்களும் ரோமானியர்களும் திரட்டிய பெரும்பாலான அறிவு இடைக்காலத்தில் இழந்தது அதுதான் சோகமான பகுதி " )
( test_100_0048 " வளைவுகளின் பயன்பாடு மற்றும் இது தண்ணீரைக் கொண்டு செல்வதை இங்கே காணலாம் இவை நீர்வழிகள் என்று அழைக்கப்படுகின்றன அது ஒரு பெருமையாக இருந்தது " )
( test_100_0049 " மேலும் இது ஒரு மலைப்பாங்கான நிலப்பரப்பாகும் மற்றும் ஒரு பள்ளத்தாக்கு எனவே நீங்கள் இங்கே பல அடுக்குகளில் ஒரே மாதிரியான வளைவுகளை உருவாக்கியுள்ளதை பார்க்கலாம் " )
( test_100_0050 " எனவே இந்த வகையான கட்டமைப்புகள் மூலம் தண்ணீர் தேவை பிரச்சினையை தீர்க்க முடிந்தது " )
( test_100_0051 " ரோமானியர்கள் தங்கள் பாலங்களில் கான்கிரீட்டைப் பயன்படுத்தியவர்கள் என்பதும் ஆச்சரியமாக இருக்கிறது " )
( test_100_0052 " அவர்கள் ஒரு பாலம் அல்ல தொள்ளாயிரத்து முப்பத்தொன்று பாலங்களை சுமார் இரண்டாயிரம் ஆண்டுகளுக்கு முன்பே கட்டியுள்ளனர் " )
( test_100_0053 " எனவே இது பாராட்டத்தக்க ஒன்று பாருங்கள் பொதுவாக நாம் எதையும் கற்றுக் கொள்ளும்போது மேற்கத்திய நாகரிகம் மற்றும் அது எப்படி உருவானது என்பதைப் பற்றி நாம் அதிகம் கற்றுக்கொண்டோம் " )
( test_100_0054 " இந்தியர்களாகிய நாம் என்ன செய்து வருகிறோம் என்பதை பார்த்ததில்லை ரோமானியப் பேரரசில் மூவாயிரத்து முந்நூறு ஆண்டுகளுக்கு முன்பு அவர்கள் கட்டிய பாலத்தைப் பார்த்தோம் " )
( test_100_0055 " நம்மிடம் இணையான எடுத்துக்காட்டுகளும் இருந்தன " )
( test_100_0056 " மேலும் ராமாயணத்திற்கு முந்தையது உங்களுக்கு கடலில் ஒரு பாலம் உள்ளது " )
( test_100_0057 " மேலும் கடலில் மிதக்கும் ஒரு பொருளை புத்திசாலித்தனமாக பயன்படுத்தியிருக்கிறார்கள் என்றேன் அவை சுண்ணாம்புக் கற்கள் மேலும் இது குறுகிய பாலம் அல்ல இது முப்பது கிலோமீட்டர் நீளமுள்ள பாலம் மற்றும் பதினைந்து ஆம் நூற்றாண்டில் புயல் வரும் வரை இந்த பாலம் நல்ல நிலையில் இருந்தது " )
( test_100_0058 " இது ஆயிரத்து நானூற்று எண்பது சூறாவளியில் மட்டுமே உடைந்தது " )
( test_100_0059 " அதுவரை மக்கள் செல்ல முடிந்தது " )
( test_100_0060 " பல ஆயிரம் ஆண்டுகளாக இந்த பாலம் இருந்தது " )
( test_100_0061 " எனவே இது பார்க்க மிகவும் சுவாரஸ்யமான ஒன்று நீங்கள் பார்த்தீனானைப் பார்க்கும்போது உங்களிடம் கூரையுடன் கூடிய அழகான கட்டிடம் உள்ளது " )
( test_100_0062 " இது துாண்கள் என அழைக்கப்படும் செங்குத்து உறுப்பினர்களைக் கொண்டுள்ளது இந்த பாடத்திட்டத்தில் நீங்கள் கற்றுக்கொள்வீர்கள் " )
( test_100_0063 " மற்றும் ட்ராவெர்ஸ் லோடிங் ஆதரிக்கும் கிடைமட்ட உறுப்பினர்கள் உத்திரங்கள் என்று அழைக்கப்படுகின்றன " )
( test_100_0064 " எனவே நீங்கள் ஒரு கட்டமைப்பை உருவாக்க விரும்பினால் உங்களிடம் உத்திரங்கள் மற்றும் துாண்கள் இருக்கலாம் என்று அவர்களுக்கு ஒரு யோசனை இருந்தது " )
( test_100_0065 " ஒரு குறிப்பிடத்தக்க வேறுபாடு துாண்களுக்கு இடையிலான தூரத்தை நீங்கள் பார்க்கிறீர்கள் அது மிகவும் குறுகியது " )
( test_100_0066 " அதேசமயம் நீங்கள் அமர்ந்திருக்கும் அறையில் ஒரு உத்திரம் உள்ளது " )
( test_100_0067 " இந்த அறையில் உத்திரம் இப்படி இருக்கிறது இடைவெளி மிகவும் பெரியது " )
( test_100_0068 " நாம்இயக்கவியலைப் புரிந்து கொண்டோம் எனவே நாம் அதை சிறப்பாகப் பயன்படுத்திக் கொள்ள முடிகிறது ஆயினும்கூட நீங்கள் பாராட்ட வேண்டும் அது கிமு நானூற்று முப்பத்தெட்டு இல் இருந்தபோது இது போன்ற கட்டமைப்புகளை உருவாக்க வேண்டும் என்ற எண்ணம் அவர்களுக்கு இருந்தது " )
( test_100_0069 " மேலும் ஆயிரம் தூண்கள் கொண்ட மண்டபங்களைக் கொண்ட பல கோவில்கள் நம்மிடம்இருந்தன எனவே இடைவெளி வேறுபட்டது " )
( test_100_0070 " இடைவெளி என்பது வித்தியாசமானது எனவே முந்தைய நாகரீகத்தைப் பார்த்தால் அவர்களுக்குப் பிரச்சனைகள் தெரியும் அவர்கள் அதை ஏதோ ஒரு முறை மூலம் தீர்த்து வைத்தனர் " )
( test_100_0071 " ஆனாலும் நடத்தை அடுத்த தலைமுறைக்கு என்ன செய்ய வேண்டும் என்பதை விரிவுபடுத்துவதற்கு அல்லது கற்பிப்பதற்கான நடத்தையை அவர்கள் முழுமையாக புரிந்து கொண்டார்களா " )
( test_100_0072 " நீங்கள் மீண்டும் வரலாற்றிற்குச் சென்றால் இந்த ஆர்க்கிமிடிஸ் இருப்பதை நீங்கள் அறிவீர்கள் இந்த வரலாற்று நபர்களை அவற்றுடன் தொடர்புடைய நேரத்துடன் நீங்கள் பார்க்க வேண்டும் என்று நான் விரும்புகிறேன் இது கிறித்தவ சகாப்தத்திற்கு முந்தையது என்பதை நீங்கள் அங்கீகரிக்க வேண்டும் " )
( test_100_0073 " மிதப்பு விதி உங்கள் அனைவருக்கும் தெரியும் அதாவது யுரேகா தருணம் இதைத் தூண்டியது எது அவருக்கு அரசன் ஒரு பிரச்சனை கொடுத்தான் அவருக்கு ஒரு தங்க கிரீடம் கிடைத்தது அது சரியாக செய்யப்படுகிறதா என்பதை அறிய விரும்பினார் அந்த நேரத்தில் கூட மக்கள் ஏமாற்றுகிறார்கள் சரி அது சுத்த தங்கத்தால் செய்யப்பட்டதா இல்லையா என்பதை அறிய விரும்பினார் எனவே அவர் அடர்த்தியைக் கண்டறிய ஒரு வழியைக் கண்டுபிடிக்க வேண்டியிருந்தது அவர் சிக்கலைத் தீர்த்தார் எனவே அந்த காலங்களில் உங்களுக்கு ஒரு ராஜா இருந்தார் அவருக்கு ஒரு அறிஞர்கள் கூட்டம் இருந்தது அரசனின் பிரச்சனையை தீர்க்கும் அறிஞர்கள் கூட்டம் அவரிடம் இருக்கும் ஒரு பிரச்சனையை எதிர்கொண்டால் அதை எவ்வாறு தீர்ப்பது என்பது பொது மக்களுக்கு ஒரு யோசனை அல்லது துப்பு இருந்தது என்பதல்ல " )
( test_100_0074 " நீங்கள் ஏற்றிச் செல்லும் சாதனங்களின் மிக அழகான கட்டுமானத்தையும் கொண்டிருக்கிறீர்கள் " )
( test_100_0075 " இது இன்னும் எகிப்தில் பாசனத்திற்கு பயன்படுத்தப்படுகிறது " )
( test_100_0076 " மேலும் ஆர்க்கிமிடிஸ் நெம்புகோல்களின் சமநிலைக்கு நன்கு அறியப்பட்டவர் " )
( test_100_0077 " இந்த பாடத்திட்டத்தில் இன்று பயன்பாட்டில் உள்ள பல கேட்ஜெட்களைக் கண்டறிய நெம்புகோல்களைப் பயன்படுத்தி பகுப்பாய்வு செய்வோம் சரி " )
( test_100_0078 " ஆனால் இந்த நெம்புகோல்களை உருவாக்க அவரைத் தூண்டியது எது என்று பார்த்தால் கதை வேறு அவர் தனது நாட்டைப் பாதுகாக்க வேண்டும் எனவே அவர் ஒரு நெம்புகோலை உருவாக்கினார் அது படகை தூக்கி ஒரே ஷாட்டில் மூழ்கடிக்கும் " )
( test_100_0079 " அதைத்தான் அனிமேஷனில் பார்த்தீர்கள் " )
( test_100_0080 " மறுபுறம் இந்த அனிமேஷன் கப்பல் எவ்வாறு மிக வேகமாக உடைக்கப்படுகிறது என்பதைக் காட்டுகிறது " )
( test_100_0081 " எனவே நான் தெரிவிக்க முயற்சிப்பது என்னவென்றால் துரதிர்ஷ்டவசமாக பல முக்கிய அறிவியல் முன்னேற்றங்கள் அது பழைய நாட்களில் இருந்ததா அல்லது தற்போது இருந்ததா இவை அனைத்தும் இராணுவக் கருத்தாய்வுகளால் துரிதப்படுத்தப்படுகின்றன " )
( test_100_0082 " முதலில் மக்கள் அதை இராணுவத்திற்காக உருவாக்குகிறார்கள் ஒருவரையொருவர் கொல்ல " )
( test_100_0083 " பிறகு உங்கள் இதய வால்வை உருவாக்குவதற்குப் பயன்படுத்தக்கூடிய தொழில்நுட்பத்தை அவர்கள் கண்டுபிடித்துள்ளனர் " )
( test_100_0084 " டைட்டானியம் உலோகக் கலவைகள் இதய வால்வுக்குப் பயன்படுத்தப்படுகின்றன அது அந்த வகையான தொழில்நுட்பத்தில் இருந்து ஊடுருவியது " )
( test_100_0085 " எனவே நீங்கள் நினைவில் கொள்ள வேண்டும் விஞ்ஞானம் எப்போதும் மனித மேம்பாட்டில் கவனம் செலுத்துகிறது என்பதல்ல " )
( test_100_0086 " ராணுவத்திற்கு மட்டுமே நிதி கிடைக்கும் " )
( test_100_0087 " நீங்கள் மனதில் கொள்ள வேண்டிய மற்றொரு அம்சம் " )
( test_100_0088 " நீங்கள் வரலாற்றிற்கு திரும்பிச் சென்றால் லியனார்டோ டாவின்சிக்கு ஒரு வளைவு மூலம் உந்துதல் பற்றிய சரியான யோசனை இருந்தது அது என்ன என்பதற்கான குறிப்பை நான் ஏற்கனவே கொடுத்துள்ளேன் " )
( test_100_0089 " அவர் பொருட்களின் வலிமையை சோதனை ரீதியாக ஆய்வு செய்துள்ளார் அதுவரை மக்கள் அதைச் செய்யவில்லை முழுமையாக சரியாக இல்லாவிட்டாலும் உத்திரங்ககளின் வலிமையும் கருதப்படுகிறது நீங்கள் ஆச்சரியப்படுவீர்கள் உத்திரங்களின் பகுப்பாய்வு சரியான கோட்பாட்டின் வளர்ச்சிக்கு நானூறு ஆண்டுகள் மனித முயற்சி தேவைப்பட்டது " )
( test_100_0090 " மிகவும் பிரகாசமான புத்திஅதற்கு பங்களித்தது இது குழந்தைகளின் விளையாட்டு அல்ல ஒரு வகுப்பில் பதினைந்து நிமிடங்களில் உத்திரங்ககளின் கோட்பாட்டைக் கற்பிப்போம் ஆனால் வரலாற்றைப் பார்த்தால் அது பெரும் போராட்டமாக இருந்தது டாவின்சி துாண்களின் வலிமை குறித்தும் சில விசாரணைகளை மேற்கொண்டார் " )
( test_100_0091 " கட்டமைப்புகளின் உறுப்பினர்களில் சக்திகளைக் கண்டறிவதில் புள்ளிவிவரங்களைப் பயன்படுத்துவதற்கான முதல் முயற்சியாக இருக்கலாம் " )
( test_100_0092 " டாவின்சி செய்த முக்கியமான முன்னேற்றங்கள் அனைத்தும் அவருடைய குறிப்புகளில் புதைந்திருந்தன " )
( test_100_0093 " ரோமானிய சகாப்தத்தைப் போலவே கட்டமைப்பு கூறுகளின் பரிமாணங்களை சரிசெய்ய பொறியாளர்கள் அனுபவம் மற்றும் ஜட்ஜ்மென்ட்டை மட்டுமே நம்பியிருந்தனர் இது மிகவும் தெளிவற்ற வார்த்தை " )
( test_100_0094 " எந்த புரிதல் இருந்தாலும் அதை கணித சமன்பாடுகளுக்குள் கொண்டு வராத வரை அது அறிவியலாக மாற முடியாது எனவே டாவின்சி உண்மையில் உணர்ந்தார் இயக்கவியல் என்பது கணித அறிவியலின் சொர்க்கம் ஏனெனில் இங்கே நாம் கணிதத்தின் பலன்களுக்கு வருகிறோம் எனவே மிக முக்கியமான அறிக்கை " )
( test_100_0095 " மேலும் அவர் ஒரு சிறந்த கலைஞராகவும் இருந்தார் மேலும் அவர் ஒரு அழகான வெண்கல சிலைக்காக பாராட்டப்பட்டார் நீங்கள் இங்கே பார்த்தால் அது இரண்டு பின்னங்கால்களில் நிற்கிறது எடை மற்றும் நிலைகளின் விநியோகத்தை நீங்கள் சரியாக புரிந்து கொள்ளாவிட்டால் இந்த சிலையை உங்களால் செய்ய முடியாது " )
( test_100_0096 " மேலும் இந்த சிலை ஒரு அடி உயரம் மட்டுமே உள்ளது மற்றும் அது எப்போது செய்யப்பட்டது இது பதினைந்து பதினாறு முதல் பதினைந்து பத்தொன்பது வரை செய்யப்பட்டது சரி " )
( test_100_0097 " குதிரை இரண்டு கால்களில் நின்று கொண்டிருந்தது " )
( test_100_0098 " ஆனால் இந்திய சாதனையில் ஒற்றைக்காலில் நிற்கும் நடராஜர் சிலையை வைத்திருந்தோம் இது மிகவும் மரியாதைக்குரியது என்று நீங்கள் நினைக்கவில்லையா அது எப்போது செய்யப்பட்டது அகழ்வாராய்ச்சியில் ஆறு ஆம் நூற்றாண்டிலிருந்து நமக்கு நடராஜர் இருப்பது தெரியவந்துள்ளது " )
( test_100_0099 " மேலும் இங்கு நான் காண்பிக்கும் சிலை பத்து ஆம் நூற்றாண்டைச் சேர்ந்த சோழர்களின் ஒற்றைக்காலில் நிற்கும் சிலைதான் " )
( test_100_0100 " ஆச்சரியமாக இருக்கிறது நீங்கள் இதைப் பாருங்கள் இது ஒரு கனபரிமாணம் கொண்டது மிகவும் சிக்கலான இயக்கவியல் அமைப்பு " )
( test_100_0101 " அவர்கள் இயக்கவியலைப் பற்றி ஓரளவு புரிந்து கொள்ளாவிட்டால் அதைச் செய்ய முடியாது " )
( test_100_0102 " டாவின்சி தனது குதிரையேற்றச் சிலையைக் கட்டுவதற்கு ஆயிரம் ஆண்டுகளுக்கு முன்பே நமக்கு இந்த அறிவு இருந்தது இவை அனைத்தும் சில்ப சாஸ்திரத்தில் பொதிந்துள்ளன மேலும் நீங்கள் ஆச்சரியப்படுவீர்கள் இந்திய அரசாங்கத்தின் அணுசக்தித் துறையால் சுவிட்சர்லாந்தில் உள்ள துகள் முடுக்கியான செர்ன்க்கு நடராஜரின் சிலை வழங்கப்பட்டுள்ளது " )
( test_100_0103 " ஏனென்றால் அவர்கள் வெளிப்படுத்த முயற்சிக்கும் துணை அணுத் துகள் எதுவாக இருந்தாலும் அவர்கள் நடராஜரின் நடனத்திலிருந்து ஈர்க்கப்பட்டனர் " )
( test_100_0104 " மற்றும் தலைமுறைகளை குழப்பிய கேள்விகள் அவை மிக முக்கியமானவை " )
( test_100_0105 " பூமி பிரபஞ்சத்தின் மையத்தில் உள்ளதா எல்லாவற்றிற்கும் பின்னால் உள்ள காரணத்தைக் கண்டுபிடிக்க வேண்டும் என்று நீங்கள் நினைக்கத் தொடங்கினால் இந்த அடிப்படை கேள்விகளை நீங்கள் எதிர்கொள்கிறீர்கள் என்று வைத்துக்கொள்வோம் " )
( test_100_0106 " குறிப்பு சட்டகம் என்றால் என்ன " )
( test_100_0107 " இது அப்சலூயுட் அல்லது ரிலேடிவ் " )
( test_100_0108 " ஈர்ப்பு என்றால் என்ன " )
( test_100_0109 " ஏனெனில் ஈர்ப்பு விசை மிகவும் குழப்பமான அம்சமாக இருந்தது உடல்கள் தொடர்பில்லாத போது நீங்கள் சக்திகளை செலுத்த வேண்டும் " )
( test_100_0110 " உடல்கள் தொடர்பு கொள்ளும்போது அவை ஒன்றுக்கொன்று சக்தியை செலுத்துவதை மக்கள் புரிந்து கொள்ள முடியும் " )
( test_100_0111 " அது ஓரளவு நியாயமாகவேபுரிந்து கொள்ளப்பட்டது " )
( test_100_0112 " எனவே புவியீர்ப்பு விசையைப் புரிந்துகொள்வது மனித பரிணாமத்தில் மிகவும் புதிராக இருந்தது மேலும் பூமி சுழல்கிறதா " )
( test_100_0113 " அது சூரியனைச் சுற்றி வருகிறதா " )
( test_100_0114 " கிரகங்கள் எப்படி நகரும் எந்த சுற்றுப்பாதையில் " )
( test_100_0115 " நேரம் மற்றும் இடம் அவை சுதந்திரமானவைகளா அல்லது சார்ந்தவைகளா " )
( test_100_0116 " நீங்கள் அனைவரும் உங்கள் பள்ளிகளில் இயற்பியல் பாடங்களில் நன்றாகக் கற்பிக்கப்படுகிறீர்கள் கோள்கள் நீள்வட்டப் பாதையில் பயணிக்கின்றன என்று கெப்லரின் விதிகள் கூறுகின்றன " )
( test_100_0117 " இப்போது பெருமையாக வந்து சொல்வீர்கள் நாம் திரும்பிச் சென்று இந்தியர்கள் முன்பு என்ன செய்தார்கள் என்பதைப் பார்ப்போம் விஞ்ஞான சிந்தனையின் அடிப்படைக்கு வருவோம் அரிஸ்டாட்டிலின் இயற்பியல் உங்களிடம் இருந்தது இது கிமு முப்பத்தி ஐம்பது இல் தொடங்கியது எனவே இடம் நேரம் மற்றும் இயக்கம் பற்றிய அரிஸ்டாட்டிலின் பார்வைகள் மிகவும் உள்ளுணர்வுடன் இருந்தன அதாவது அவர் சொல்வதை அனைவரும் ஏற்றுக்கொள்வார்கள் " )
( test_100_0118 " மேலும் அவர் கூறிய கருத்துக்கள் இவை அவை இயற்கையில் மிகவும்புலனாகாத கருத்துக்கள் ஒவ்வொரு உணர்வுள்ள உடலும் அதன் இயல்பில் எங்கோ உள்ளது நேரம் என்பது தொடர்ச்சியான இயக்கத்தின் எண்ணிக்கை மிகவும் புலனாகாத பகுதிகள் சரி ஃபிரேம் ஆஃப் ரெஃபரன்ஸ் பற்றி அவர் என்ன சொன்னார் " )
( test_100_0119 " முழுமையான ஓய்வு நிலையில் இருக்கும் ஒரு முதன்மை இயக்கி உள்ளது " )
( test_100_0120 " இந்த முழுமையான ஓய்வு நிலையைப் பொறுத்தவரை உங்களிடம் உள்ள ஒருங்கிணைப்பு அமைப்பை நீங்கள் அளவிட வேண்டும் " )
( test_100_0121 " மேலும் பிரைம் மூவரிடமும் ஒரு கடிகாரம் இருந்தது " )
( test_100_0122 " அவர் வைத்திருக்கும் இந்த பழைய கடிகாரத்தைப் பார்க்கிறீர்கள் பிரைம் மூவர் கடிகாரத்தின் அடிப்படையில் நேரம் அளவிடப்படுகிறது நீங்கள் தொடங்கும் போது தொடங்குவதற்கு மிகவும் வசதியானது " )
( test_100_0123 " இந்தக் காட்சிகள் எத்தனை ஆண்டுகள் தடையின்றி இருந்தன என்று உங்களால் கற்பனை செய்ய முடிகிறதா " )
( test_100_0124 " உங்களால் யூகிக்க முடியுமா " )
( test_100_0125 " தன்னைச் சுற்றி என்ன நடக்கிறது என்பதைப் புரிந்துகொள்வதற்காக யாராவது ஒரு அறிக்கையை வெளியிட்டு சில அடிப்படை யோசனைகளை உருவாக்கும்போது " )
( test_100_0126 " நீங்கள் ஆச்சரியப்படுவீர்கள் இது மாற இரண்டாயிரம் ஆண்டுகள் ஆனது ஒன்று அல்லது இரண்டு ஆண்டுகள் அல்ல " )
( test_100_0127 " எனவே ஒரு வகுப்பிற்குப் பிறகு உங்களுக்கு சந்தேகம் வரும்போது கோபப்பட வேண்டாம் நல்லது மனித நாகரீகம் அப்படித்தான் உங்களுக்கு ஒரு சந்தேகம் வந்தால் அந்தக் கால கட்டத்தில் அவர்கள் கேட்ட அந்த அசல் சந்தேகம் உங்களுக்கு வரலாம் " )
( test_100_0128 " மேலும் கலிலியோவின் காலம்வந்தது அவர் ஆயிரத்து ஐநூறு ஆண்டுகள் அல்லது இரண்டாயிரம் ஆண்டுகள் கழித்து வந்தார் " )
( test_100_0129 " அப்சலூயுட் ரெஸ்ட் என்று எதுவும் இல்லை என்று அவர் வாதிட்டார் " )
( test_100_0130 " இயற்பியலின் இயந்திர விதிகள் ஒரு நேர்கோட்டில் நிலையான வேகத்தில் நகரும் ஒவ்வொரு பார்வையாளருக்கும் ஒரே மாதிரியாக இருக்கும் இது உறழ்மை பார்வையாளர் என்று அழைக்கப்படுகிறது அந்த நாட்களில் லோகோமோஷனுக்காக உங்களிடம் என்ன இருந்தது " )
( test_100_0131 " உங்களிடம் இந்தப் படகுகள் மட்டுமே இருந்தன சரி எனவே ஒரு படகில் ஒரு நேர்கோட்டில் நிலையான வேகத்தில் பயணம் செய்யும் போது அவர் கூறினார் அது மிகவும் முக்கியமானது ஒரு அமைதியான ஏரியில் படகிலோ அல்லது கரையில் எடுக்கும் முடிவுகள் ஒரே மாதிரியாக இருக்கும் " )
( test_100_0132 " வெளியே பார்க்காமல் கப்பல் நகர்கிறதா என்று சொல்ல முடியாது அது ஒரு பெரிய புரிதல் சரி " )
( test_100_0133 " மேலும் கலிலியோ கூறியிருப்பதைப் பார்த்தால் நாம் நமது இலக்கியத்திற்குத் திரும்பிச் சென்றால் அனுலோமா கதிநௌஸ்தாஹ என்று ஒரு ஸ்லோகம் உள்ளது " )
( test_100_0134 " இது ஆர்யப்பட்டியத்தில் இருந்து இது கிபி நானூற்று தொண்ணூற்று ஒன்பது இல் " )
( test_100_0135 " குறைந்தது ஆயிரம் ஆண்டுகளுக்கு முன்பு கலிலியோ சார்பியல் பற்றி யோசித்துக்கொண்டிருந்தார் சரி இதன் பொருள் ஒரு படகில் முன்னோக்கி நகரும் நபர் கரையில் உள்ள நிலையான பொருட்களைப் பின்நோக்கி நகர்வதைப் பார்ப்பது போல நிலையான நட்சத்திரங்கள் மேற்கு நோக்கி நகர்வதைப் போல இலங்கையில் காணப்படுகின்றன மிக முக்கியமானது சார்பியல் கருத்து எளிதானது அல்ல " )
( test_100_0136 " இதை விட ஆயிரம் ஆண்டுகளுக்கு முன்பே இந்திய விஞ்ஞானிகள் இந்த பார்வையை பெற்றனர் நம்மிடம் இதுபோன்ற பதிவுகள் உள்ளன சரி " )
( test_100_0137 " மேலும் கலிலியோவின் இடம் மற்றும் நேரம் என்ன அவரும் இப்படி ஒரு குறிப்பு சட்டத்தை வைத்திருந்தார் அது முழுமையானது என்று அவர் சொல்லவில்லை சரி " )
( test_100_0138 " எனவே அவர் கூறியது என்னவென்றால் ஒவ்வொரு உறழ்மை பார்வையாளரும் தங்களை பிரதம இயக்கம் என்று அறிவித்துக் கொள்ளலாம் மற்றும் எக்ஸ் பிரைம் ஒய் பிரைம் மற்றும் ஜி பிரைம் ஆகியவற்றின் சொந்த ஆயத்தொகுப்புகளைப் பொறுத்து எல்லாவற்றின் நிலையை அளவிட முடியும் " )
( test_100_0139 " ஒரே கட்டுப்பாடு என்னவென்றால் அது ஒரு நிலையான வேகத்துடன் ஒரு நேர்கோட்டில் பயணிக்க வேண்டும் அது ஒரு திசையில் இருக்கலாம் மற்றொரு திசையில் இருக்கலாம் அல்லது மிகவும் பொதுவான திசையில் இருக்கலாம் " )
( test_100_0140 " எனவே எது குறிப்பு சட்டமாக இருக்க வேண்டும் என்பதை அவர் தளர்த்தினார் ஆனால் அவர் நேரத்தைப் பற்றி என்ன செய்தார் " )
( test_100_0141 " அவர் இன்னும் பிரைம் மூவரின் கடிகாரத்திலிருந்து நேரத்தை அளந்தார் அது மாற்றப்படவில்லை " )
( test_100_0142 " இரண்டாயிரம் ஆண்டுகளுக்குப் பிறகு நடக்கும் கதை இது எனவே கலிலியோ வெளியேறிய இடத்தில் நியூட்டன் தொடங்கினார் " )
( test_100_0143 " நீங்கள் பார்த்தால் கலிலியோவின் வாழ்க்கை ஆயிரத்து நாற்பத்திரண்டு இல் முடிவடைகிறது மற்றும் ஆயிரத்து நாற்பத்திரண்டு இல் ஐசக் நியூட்டன் பிறந்தார் " )
( test_100_0144 " மேலும் நியூட்டனின் இயக்கவியல் விதிகள் கலிலியோவின் சார்பியல் கோட்பாட்டுடன் ஒத்துப் போவதாக அவர் கூறுகிறார் " )
( test_100_0145 " நியூட்டனின் விதிகள் என்ன என்பதை நாம் அனைவரும் ஓரளவு அறிவோம் " )
( test_100_0146 " ஒரு பொருளை அதன் வேகத்தை மாற்ற நமக்கு ஒரு விசை தேவை " )
( test_100_0147 " மற்ற அறிக்கை என்னவென்றால் எந்த சக்தியாலும் செயல்படாத ஒரு உடல் ஓய்வில் இருக்கும் அல்லது சீரான இயக்கத்தில் இருக்கும் அது தொடங்குவதற்கு முன் எதைச் செய்து கொண்டிருந்ததோ இயக்கவியலின் வளர்ச்சியில் மிக முக்கியமான அறிக்கைகள் அதைச் செய்ய இரண்டாயிரம் ஆண்டுகள் ஆனது இந்த விரிவுரையில் நாம் மீண்டும் மீண்டும் பார்ப்போம் நியூட்டனின் இயக்கவியல் விதிகளைப் பல்வேறு வழிகளிள் பார்ப்போம் சரி அதனால் நீங்கள் யோசனை பெறுவீர்கள் மையக் கருத்து இதைப் புரிந்துகொள்வது எவ்வளவு கடினமாக இருந்தது " )
( test_100_0148 " மேலும் உங்களிடம் பிரபலமான சட்டம் உள்ளது எப் என்பது எம் ஏ க்கு சமம் மற்றும் இது எம் டி வி ஆல் டி தி ஆகும் " )
( test_100_0149 " பதினான்கு எழுபத்து மூன்று மற்றும் பதினைந்து நாற்பத்து மூன்றுக்கு இடையில் கோப்பர்நிக்கஸும் இருந்தார் " )
( test_100_0150 " பிரபஞ்சத்தின் மையத்தில் பூமி இருக்கிறதா என்ற கேள்வியைக் கேட்டோம் " )
( test_100_0151 " இரண்டாயிரம் ஆண்டுகளாக பூமி பிரபஞ்சத்தின் மையத்தில் இருப்பதாக மக்கள் நம்பினர் அதனால் இதற்கு எதிர்ப்பு கிளம்பியது இதைக் கொண்டு வந்த விஞ்ஞானிகளில் ஒருவர் கோபர்நிக்கஸ் " )
( test_100_0152 " அவர் ஹீலியோசென்ட்ரிக் கோட்பாட்டைப் பற்றி உறுதியாக நம்பினார் ஆனால் அவரது பணியின் பின்விளைவுகளுக்கு மிகவும் பயந்தார் பதினைந்து நாற்பத்து மூன்றுக்கு இல் அவரது மரணப் படுக்கையில் அவரது டி ரெவலூலிபஸின் அச்சிடப்பட்ட நகலை அவர் பெற்றார் என்று கதை கூறுகிறது " )
( test_100_0153 " மேலும் பூமி அதன் அச்சில் ஒரு நாளைக்கு ஒருமுறை சுழல்கிறது என்பதையும் அவர் நிறுவினார் அதுவரை மக்களுக்கு அந்த எண்ணம் இல்லை சரி " )
( test_100_0154 " அப்போது உங்களுக்கு ஜோஹன்னஸ் கெப்லர் இருந்தார் பதினைந்து எழுபத்தொன்று முதல் பதினாறு முப்பது வரை " )
( test_100_0155 " அவர் பதினாறு இருபத்தி ஏழுஇல் ருடால்பினேயின் டேபுலாவை வெளியிட்டார் இது கிரகங்களின் இயக்கத்திற்கான மிகவும் துல்லியமான கணிப்புகள் உங்கள் அனைவருக்கும் தெரியும் அவர் கெப்லரின் இயக்க விதிகளை கூறினார் மற்றும் கிரகங்கள் நீள்வட்ட சுற்றுப்பாதையில் பயணிப்பதை நீங்கள் அறிவீர்கள் இதெல்லாம் நடந்தது எப்போது பதினைந்து எழுபது பதினாறு முப்பது மற்றும் பலவற்றில் சரி நீங்கள் பதினைந்து தொண்ணூற்று ஆறு மற்றும் பதினாறு ஐம்பதுக்கு இடையில் ரானே டெஸ்கார்ட்ஸைக் கொண்டிருந்தீர்கள் " )
( test_100_0156 " அவர் ஈர்ப்பு விசையின் புதிரைக் கண்டுபிடிக்க முயன்றார் ஏனெனில் இது தொடர்பு இல்லாத விசை " )
( test_100_0157 " எனவே அவர் வகுத்தார் தொடர்பு கொண்டு வற்புறுத்துவதற்கு மட்டுமே அவர் பழக்கப்பட்டவர் " )
( test_100_0158 " எனவே துகள்கள் மோதும் சுழல் கோட்பாட்டை முன்மொழிந்தார் " )
( test_100_0159 " இதற்கு விண்வெளியில் ஒரு ஊடகம் தேவைப்பட்டது அது சாத்தியமற்றது மற்றும் அவர் புவி மையக் கோட்பாட்டை கேள்விக்குள்ளாக்கிய கோப்பர்நிக்கன் கோட்பாட்டின் அடிப்படைகளைத் தாக்கினார் " )
( test_100_0160 " மக்கள் புவிமையக் கோட்பாட்டிற்காக இருந்ததால் அவர்கள் நூறு ஆண்டுகளாக டெஸ்கார்ட்டுடன் ஒட்டிக்கொண்டனர் நியூட்டன் காட்டியபோதும் டெஸ்கார்ட்ஸ் சுழல் கோட்பாட்டைப் பற்றி என்ன சொன்னாலும் அது ஒரு இயக்கவியல் அமைப்பாக சாத்தியமற்றது மக்கள் மாறுவது மிகவும் கடினம் என்பதால் அவர்கள் தங்கள் கருத்துக்களை அவ்வளவு எளிதில் மாற்ற விரும்பவில்லை அதை நம்ப விஞ்ஞானிகள் போராட வேண்டும் மேலும் இது ஒரு காலக்கோடு மற்றும் நேர அளவு நேரியல் அல்ல " )
( test_100_0161 " உங்களுக்கு அரிஸ்டாட்டில் இருந்தார் உங்களுக்கு டோலமி இருந்தார் " )
( test_100_0162 " அவர்கள் புவி மையக் கோட்பாட்டின் ஆதரவாளர்கள் கடவுளின் படைப்பில் நாம்மிகவும் முக்கியமானவர்கள் என்று நினைப்பது நாகரீகத்திற்கு மிகவும் வசதியானது " )
( test_100_0163 " லியோனார்டோ டாவின்சி ஆயிரத்து நானூற்று ஐம்பத்திரண்டு மற்றும் ஆயிரத்து ஐந்நூற்று பத்தொன்பதுக்கு இடையில் இருந்தார் " )
( test_100_0164 " அப்போது சூரிய மையக் கோட்பாட்டைப் பற்றிப் பேசிய கோப்பர்நிக்கஸ் நம்மிடம் இருந்தார் " )
( test_100_0165 " அப்போது கோள்களின் இயக்கம் பற்றி பேசிய கெப்ளர் இருந்தார் " )
( test_100_0166 " பின்னர் கலிலியோ சார்பியல் கருத்தை நிறுவச் செய்தார் நியூட்டன் கலிலியோவின் சார்பியல் கொள்கையைப் பின்பற்றினார் " )
( test_100_0167 " பல காலத்திற்கு பின்னர் ஆல்பர்ட் ஐன்ஸ்டீன்வந்தார் அவர் நேரத்தின் கருத்தை கேள்விக்குள்ளாக்கினார் " )
( test_100_0168 " அரிஸ்டாட்டில் முதல் நியூட்டன் வரை அவர்கள் இன்னும் பிரைம் மூவரில் கடிகாரத்தை வைத்திருந்தனர் அதிலிருந்து மட்டுமே நீங்கள் நேரத்தை அளந்தீர்கள் " )
( test_100_0169 " அதற்கு இரண்டாயிரம் ஆண்டுகள் பிடித்தன " )
( test_100_0170 " நியூட்டன் முதல் ஐன்ஸ்டீன் வரை அந்த பார்வைகளை மாற்ற இருநூறு ஆண்டுகள் ஆனது மேலும் அவர் ஸ்பெஷல் தியரி ஆஃப் ரெளடிவிட்டி வெளியிட்டார் மேலும் அரிஸ்டாட்டிலின் பங்களிப்பு என்ன என்பதைப் பார்ப்போம் " )
( test_100_0171 " சக்தி இல்லாத நிலையில் என்ன நடக்கும் " )
( test_100_0172 " ஒரு பொருள் ஓய்வில் உள்ளது அது நம்பத்தகுந்ததாகவும் மிகவும் அழகாகவும் உள்ளது " )
( test_100_0173 " கிபி ஆயிரத்து அறுநூற்று அறுபது இல் நியூட்டன் என்ன சொன்னார் ஓய்வில் இருக்கும் பொருள் ஓய்வில் இருக்கும் என்றும் ஒப்புக்கொண்டார் அங்கு எந்த முரண்பாடும் இல்லை " )
( test_100_0174 " அவர் மேலும் ஒரு அறிக்கையை வெளியிட்டார் அது இப்போது மிகவும் எளிமையானது " )
( test_100_0175 " அது ஒரு நிலையான வேகத்துடன் நகர்ந்தால் அது தொடர்ந்து செல்லும் மிகவும் எளிமையான அறிக்கை ஆனால் அதைப் பெற இரண்டாயிரம் ஆண்டுகள் ஆனது " )
( test_100_0176 " இது மிகவும் குறிப்பிடத்தக்க வளர்ச்சி மற்றும் சாதனை " )
( test_100_0177 " மற்ற கண்ணோட்டத்தில் இருந்து பாருங்கள் எதற்கு நமக்கு ஒரு சக்தி வேண்டும் " )
( test_100_0178 " ஒரு பொருள் அசைவதற்கு ஒரு விசை வேண்டும் அதையும் மக்கள் புரிந்து கொள்ள முடியும் " )
( test_100_0179 " நியூட்டன் என்ன சொன்னார் " )
( test_100_0180 " ஒரு பொருள் அதன் வேகத்தை மாற்றுவதற்கு வேறுபாடு மிகவும் நுட்பமானது " )
( test_100_0181 " இந்த உண்மையை ஊடுருவ இரண்டாயிரம் ஆண்டுகள் ஆனது " )
( test_100_0182 " இப்போது நீங்கள் நியூட்டனின் விதிகளைப் பின்பற்றுகிறீர்கள் பின்னர் நீங்கள் தவறு செய்கிறீர்கள் அது வேறு ஆனால் சட்டங்கள் கூறப்படுகின்றன மற்றும் சட்டங்கள் சரியானவை என்று மீண்டும் மீண்டும் நிரூபிக்கப்படுகின்றன " )
( test_100_0183 " அவர்கள் சட்டங்களை இயற்றும் காலம் இது யாரும் பயன்படுத்த மிகவும் தெளிவாக கிடைக்காத போது நிஜ உலகில் இயக்கத்தின் இயக்கவியலை நியூட்டன் தெளிவுபடுத்தினார் " )
( test_100_0184 " ஒரு முழுமையான குறிப்பு சட்டமும் ஒரு முழுமையான நேரமும் இருப்பதாக அவர் நம்பினார் " )
( test_100_0185 " இந்தக் குறிப்புச் சட்டத்தில் அல்லது இந்த முழுமையான சட்டத்துடன் தொடர்புடைய நிலையான வேகத்தில் ஓய்வில் இருக்கும் அல்லது நகரும் மற்ற குறிப்புச் சட்டத்தில் அளவீடுகள் செய்யப்படும்போது மட்டுமே அவரது சட்டங்கள் பயன்படுத்தப்படும் அவை இந்நேர்சியால் பிரேம் ஆஃப் ரெபெரென்ஸ் என்று அழைக்கப்படுகின்றன சரி மேலும் அவர் ஆப்பிள்கள் விழும் புகழ்பெற்ற கதையுடன் தொடர்புடையவர் அது அவரை பிரின்சிபியா கணிதம் என்ற புத்தகத்தை எழுத வைத்தது எனவே ஆப்பிள் வீழ்ச்சியானது பிரபஞ்சம் இடம் நேரம் மற்றும் பலவற்றைப் பற்றி அரிஸ்டாட்டில் கொண்டிருந்த சிந்தனை செயல்முறையையும் அகற்றியது சரி ஏனெனில் ஈர்ப்பு விசையை புரிந்துகொள்வது மிகவும் கடினமாக இருந்தது மற்றும் இந்த வளர்ச்சிகளை துரிதப்படுத்தியது " )
( test_100_0186 " இப்போது திரும்பிப் பார்ப்போம் சமஸ்கிருத இலக்கியத்தில் என்ன இருக்கிறது " )
( test_100_0187 " கோபி பாக்ய மதுவ்ரதா போன்ற எளிமையான ஸ்லோகத்தைப் படிப்போம் ஸ்லோகம் இப்படி செல்கிறது " )
( test_100_0188 " மேலோட்டமாகப் பார்த்தால் அது கிருஷ்ணரின் செயல்பாடுகளைப் போற்றுகிறது " )
( test_100_0189 " ஓ கிருஷ்ணா கோபியர்களின் அதிர்ஷ்டம் மது என்ற அரக்கனை அழிப்பவன் கதை இப்படி செல்கிறது ஆனால் சமஸ்கிருத இலக்கியத்தில் சுவாரஸ்யமானது என்னவென்றால் அதில் தகவல் அடுக்குகள் உள்ளன " )
( test_100_0190 " இப்போது பாருங்கள் நீங்கள் வேறு யுகத்தில் இருக்கிறீர்கள் உங்கள் ஹார்ட் டிஸ்க்காக டெராபைட் உள்ளது நீங்கள் விரும்பும் எந்த தகவலையும் சேமிக்க முடியும் " )
( test_100_0191 " அவர்கள் ஒரு தலைமுறையிலிருந்து மற்றொரு தலைமுறைக்கு அறிவை நினைவாற்றல் மூலம் கடத்த வேண்டியிருந்தது மேலும் இந்த அறிவை சரியான வகையான மக்களுக்கு அனுப்பவும் அவர்கள் விரும்பினர் உங்களிடம் இப்போது கிரிப்டாலஜி உள்ளது " )
( test_100_0192 " எனவே அவர்கள் அனைத்து தகவல்களையும் சமஸ்கிருதத்தில்பொதி செய்திருந்தனர் மேலும் அவை மறைபொருளாக ஆக்கப்பட்டன எனவே பயிற்சி பெற்றவர்கள் மட்டுமே இந்தத் தகவலை அவிழ்க்க முடியும் " )
( test_100_0193 " இப்போது நான் உங்களுக்கு மிகவும் சுவாரஸ்யமான தகவலைக் காட்டப் போகிறேன் இந்த எளிய ஸ்லோகம் கூறுகிறது அதை நாம் பார்ப்போம் " )
( test_100_0194 " ஸம்ஸ்கிருத இலக்கியத்தில் கடபயதி என்று ஒன்று உண்டு " )
( test_100_0195 " கோபி பாக்யா என்று சொல்லும் போது கா பா பா யா என்ற எழுத்துக்களாகவே பார்க்க முடிகிறது அதற்கு கொடுக்கப்பட்ட எண்கள் இவை இந்த எண்களைப் பார்த்தால் எனக்கு மூவாயிரத்து நாற்பத்தொன்று கிடைக்கும் " )
( test_100_0196 " மேலும் மதுவ்ரதா என்றால் என்ன " )
( test_100_0197 " இதே பாணியில் மதுவ்ரதம் என்றால் என்ன என்பதைக் கண்டறியலாம் அது ஐந்தாயிரத்து தொள்ளாயிரத்து இருபத்தி ஆறு ஆகும் " )
( test_100_0198 " சிருங்கி ஷோடதி சந்திகா மிக நீண்ட இலக்கத்தைக் கொண்டுள்ளது " )
( test_100_0199 " நான் எங்கு செல்கிறேன் என்று உங்களில் சிலர் யூகிக்க முடியுமா " )
( test_100_0200 " சரி அது நல்லது எனவே கலாஜீவிதா மற்றும் உங்களிடம் கா தா வா உள்ளது மேலும் இந்த எண்கள் அனைத்தையும் உங்களால் பெற முடியும் மேலும் இந்த ஸ்லோகம் பையின் மதிப்பை முப்பத்தி இரண்டு இலக்கங்களுக்கு துல்லியமாகக் கூறுகிறது " )
( test_100_0201 " ஸ்லோகத்தில் இது இருக்கிறது என்று யாராவது வந்து சொன்னாலன்றி இது வேத கணிதத்தின் ஸ்ரீ பாரதிதீர்த்தரின் பெருமைக்கு உரியது " )
( test_100_0202 " மேலும் கதையும் செல்கிறது இது கிருஷ்ணரின் செயல்பாடுகளைப் போற்றுகிறது என்று பார்த்தோம் இது சிவனை போற்றுகிறது என்று மற்றொரு விளக்கம் உள்ளது " )
( test_100_0203 " எனவே சமஸ்கிருத இலக்கியம் மிகவும் சிக்கலானது உங்களிடம் சரியான மொழிபெயர்ப்பாளர் இல்லையென்றால் அது தொடர்புகொள்வதை நீங்கள் தவறவிடுவீர்கள் " )
( test_100_0204 " நீங்கள் மனதில் கொள்ள வேண்டிய பின்னணி இதுதான் " )
( test_100_0205 " மேலும் ஈர்ப்பு விசையைப் புரிந்துகொள்வது மிகவும் கடினம் என்று சொன்னோம் சரி ஏனெனில் அது தூரத்தில் செயல்படும் சக்தி " )
( test_100_0206 " ஈர்ப்பு விதி உபநிடதத்தில் உள்ளது " )
( test_100_0207 " உங்களில் எத்தனை பேர் இந்த மாதிரியான கண்ணோட்டத்தைப் பற்றி கேள்விப்பட்டிருப்பீர்கள் " )
( test_100_0208 " பூமியின் தேவதா அபானனின் செயல்பாட்டைச் செயல்படுத்துகிறது என்று பிரஸ்னோபநிஷத்தில் ஒரு மந்திரம் கூறுகிறது மேலும் உங்களுக்கு இப்படி ஒரு ஸ்லோகம் இருக்கும் நான் சொன்னேன் ஸ்லோகம் மட்டும் போதாது அதைப் புரிந்து கொள்ள உங்களுக்கு சரியான மொழிபெயர்ப்பாளர் தேவை " )
( test_100_0209 " எனவே ப்ரிதிவ்யம் யா தேவதா ஸ்லோகம் இப்படி செல்கிறது " )
( test_100_0210 " ஆதிசங்கரர் இதன் பொருளை விளக்க விரும்பிய போது மேற்கூறிய மந்திரத்திற்கு பாஷ்யம் எழுதும் போது ஆதிசங்கரர் பூமி தன் மீது வைத்த அனைத்தையும் கவர்வது போல அபானன் பிராணனை கீழே இழுப்பது போல என்று எழுதியிருந்தார் மற்றும் இது எப்போது " )
( test_100_0211 " இது மீண்டும் பி சி கிறித்துவுக்கு முன் " )
( test_100_0212 " பழங்காலத்திலிருந்தே நமது இந்திய பாரம்பரியத்தில் இயந்திரவியல் பற்றிய பல கருத்துகள் இருந்ததில் நாம் அனைவரும் மிகவும் பெருமைப்பட வேண்டும் " )
( test_100_0213 " நான் வளர்ந்த போதுயாரும் என்னிடம் சொல்லவில்லை " )
( test_100_0214 " பல ஆண்டுகளாக நான் கற்றுக்கொண்டபோது நமக்கும் இந்த வகையான அறிவு மேற்கத்திய விஞ்ஞானிகள் பெற்றதை விட மிகவும் முன்னதாகவே இருப்பதை நான் சொல்வது அவசியம் என்று நினைத்தேன் " )
( test_100_0215 " இருப்பினும் நீங்கள் அவர்களுக்கு உரிய கௌரவத்தைகொடுக்க வேண்டும் " )
( test_100_0216 " எல்லோரும் பயன்படுத்தக்கூடிய ஒரு கணித வடிவத்தில் அதை வைத்திருக்கிறார்கள் நவீன அறிவியலின் பின்னணியில் உள்ள சிறந்த சமஸ்கிருத அறிஞர்களால் தான்ள இந்திய நாகரிகத்தின் மர்மங்களை அவிழ்க்க முடியும் " )
( test_100_0217 " உண்மையில் இதுபோன்ற பல பணிகள் தற்போது நடைபெற்று வருகின்றன மக்கள் அதில் வேலை செய்கிறார்கள் மக்கள் அதை மறுபரிசீலனை செய்கிறார்கள் " )
( test_100_0218 " எனவே இந்த விரிவுரையில் நாம் ஒரு பறவையின் பார்வையில் பார்த்தோம் பொருட்களின் வலிமைக்கு பின்னால் உள்ள வரலாறு என்ன " )
( test_100_0219 " நாம் பார்த்த சில குறிப்புகள் " )
( test_100_0220 " மனிதப் போராட்டத்தைப் பாராட்டத்தான் வேண்டும் நீங்கள் கற்றுக்கொண்டதும் சாதாரணமாக எடுத்துக்கொள்வதும் ஒரே நாளில் வந்துவிடவில்லை " )
( test_100_0221 " மக்கள் போராட வேண்டும் மற்றும் மக்கள் கருத்துக்களைப் பற்றிக் கொள்கிறார்கள் " )
( test_100_0222 " வசதியான ஒன்றை மாற்றுவது மிகவும் கடினம் " )
( test_100_0223 " ஆயிரம் கேள்விகளையும் ஒருவரிடம் கேட்டால் அவர் நிலை குலைந்து போவார் " )
( test_100_0224 " இவை மிகவும் மனதைக் கவரும் கேள்விகள் " )
( test_100_0225 " எனவே அடுத்த வகுப்பில் விவாதத்தைத் தொடர்வோம் " )
( test_100_0226 " கோள்களின் இயக்கம் பற்றிய மிக ஆச்சரியமான தகவல்களையும் நாம் காண்போம் நமது இலக்கியத்தில் நீள்வட்ட இயக்கம் என்று மிகச் சரியாகச் சொல்லப்பட்டிருக்கிறது " )
( test_100_0227 " யாரும் எங்களிடம் சொல்லவில்லை " )
