
-4.167496e-01
-4.182195e-01
-4.133952e-01
-3.942343e-01
-3.504665e-01
-2.713334e-01
-1.502745e-01
8.256081e-03
1.839534e-01
3.431311e-01
4.505013e-01
4.857724e-01
4.552979e-01
3.900494e-01
3.290410e-01
2.974648e-01
2.935210e-01
2.928661e-01
2.674710e-01
2.052626e-01
1.164655e-01
2.282836e-02
-6.058221e-02
-1.354791e-01
-2.134918e-01
-2.980829e-01
-3.714441e-01
-3.999745e-01
-3.572457e-01
-2.479906e-01
-1.132740e-01
-9.660931e-03
2.527665e-02
-2.628940e-03
-4.757121e-02
-5.353965e-02
9.565984e-03
1.275435e-01
2.521586e-01
3.309419e-01
3.354322e-01
2.708614e-01
1.654942e-01
5.154311e-02
-4.786068e-02
-1.198638e-01
-1.564648e-01
-1.517716e-01
-1.059951e-01
-3.176795e-02
4.521786e-02
9.490294e-02
9.663538e-02
4.945987e-02
-2.691934e-02
-9.965390e-02
-1.332239e-01
-9.827374e-02
2.159345e-02
2.230724e-01
4.767600e-01
7.261932e-01
8.987014e-01
9.292399e-01
7.889556e-01
5.037903e-01
1.504678e-01
-1.718140e-01
-3.818632e-01
-4.490511e-01
-4.011521e-01
-3.041344e-01
-2.260714e-01
-2.056580e-01
-2.420335e-01
-3.091782e-01
-3.829504e-01
-4.608978e-01
-5.597119e-01
-6.907024e-01
-8.307089e-01
-9.126165e-01
-8.498981e-01
-5.872869e-01
-1.485421e-01
3.519820e-01
7.487155e-01
8.992673e-01
7.546726e-01
3.863091e-01
-4.663054e-02
-3.722892e-01
-4.837185e-01
-3.784496e-01
-1.432014e-01
1.013968e-01
2.615523e-01
3.048512e-01
2.569531e-01
1.709956e-01
9.222545e-02
3.777236e-02
-1.098864e-03
-4.087051e-02
-8.605383e-02
-1.208378e-01
-1.167698e-01
-5.121627e-02
7.519807e-02
2.331943e-01
3.752547e-01
4.558217e-01
4.495507e-01
3.578551e-01
2.024046e-01
1.279559e-02
-1.820150e-01
-3.543822e-01
-4.752399e-01
-5.163372e-01
-4.611765e-01
-3.186062e-01
-1.271526e-01
5.773764e-02
1.888738e-01
2.495293e-01
2.573098e-01
2.465440e-01
2.416519e-01
2.410080e-01
2.230650e-01
1.695149e-01
8.676517e-02
7.907237e-03
-2.799531e-02
-4.632061e-03
5.641831e-02
1.066833e-01
1.016277e-01
3.056648e-02
-7.476074e-02
-1.586866e-01
-1.747438e-01
-1.118010e-01
2.669401e-03
1.221584e-01
2.090355e-01
2.529234e-01
2.702024e-01
2.883082e-01
3.268237e-01
3.863326e-01
4.485214e-01
4.837085e-01
4.602079e-01
3.531164e-01
1.535309e-01
-1.214176e-01
-4.220805e-01
-6.713165e-01
-7.863648e-01
-7.130939e-01
-4.570130e-01
-9.189672e-02
2.642224e-01
4.981917e-01
5.527932e-01
4.530178e-01
2.922434e-01
1.836776e-01
2.013292e-01
3.412849e-01
5.237239e-01
6.343469e-01
5.829652e-01
3.487594e-01
-1.010511e-02
-3.857789e-01
-6.722326e-01
-8.117384e-01
-8.131882e-01
-7.356061e-01
-6.493264e-01
-5.977652e-01
-5.795770e-01
-5.573953e-01
-4.846184e-01
-3.339188e-01
-1.133413e-01
1.353527e-01
3.524724e-01
4.821187e-01
4.919003e-01
3.849421e-01
2.004513e-01
1.299348e-03
-1.488801e-01
-2.108167e-01
-1.849219e-01
-1.074598e-01
-2.822037e-02
1.794728e-02
2.834415e-02
2.753829e-02
4.421441e-02
8.650794e-02
1.339929e-01
1.525681e-01
1.215967e-01
5.315047e-02
-1.151439e-02
-2.698396e-02
2.665153e-02
1.296935e-01
2.335535e-01
2.883949e-01
2.690821e-01
1.835665e-01
6.115281e-02
-6.845226e-02
-1.898763e-01
-3.017187e-01
-4.040961e-01
-4.853801e-01
-5.189975e-01
-4.734062e-01
-3.293438e-01
-9.413264e-02
1.949131e-01
4.796381e-01
6.981936e-01
8.028469e-01
7.721591e-01
6.146396e-01
3.646199e-01
7.340944e-02
-2.009906e-01
-4.037738e-01
-4.928524e-01
-4.484005e-01
-2.808592e-01
-3.307376e-02
2.283997e-01
4.336873e-01
5.351729e-01
5.258002e-01
4.386468e-01
3.258166e-01
2.278084e-01
1.521321e-01
7.551585e-02
-3.131975e-02
-1.733740e-01
-3.176433e-01
-4.073175e-01
-3.959781e-01
-2.791084e-01
-1.014094e-01
6.537653e-02
1.595638e-01
1.581883e-01
8.143952e-02
-2.545594e-02
-1.172341e-01
-1.638484e-01
-1.507322e-01
-7.223932e-02
6.909564e-02
2.529047e-01
4.298036e-01
5.243495e-01
4.611419e-01
2.062899e-01
-1.985160e-01
-6.340045e-01
-9.433698e-01
-1.000000e+00
-7.692261e-01
-3.294327e-01
1.614129e-01
5.373324e-01
6.963570e-01
6.363565e-01
4.394532e-01
2.182561e-01
5.661699e-02
-2.277102e-02
-5.051283e-02
-7.407107e-02
-1.193022e-01
-1.734020e-01
-1.959062e-01
-1.467753e-01
-1.291657e-02
1.810094e-01
3.806567e-01
5.228029e-01
5.592892e-01
4.756166e-01
2.979880e-01
8.517083e-02
-9.397176e-02
-1.894662e-01
-1.920379e-01
-1.348085e-01
-7.235139e-02
-4.864562e-02
-7.348631e-02
-1.218256e-01
-1.548403e-01
-1.468956e-01
-9.958079e-02
-3.512199e-02
2.250690e-02
6.252506e-02
8.777943e-02
1.037678e-01
1.087404e-01
9.467999e-02
5.779758e-02
7.711890e-03
-3.445977e-02
-4.885331e-02
-3.038912e-02
7.873331e-03
4.387107e-02
6.052166e-02
5.412926e-02
3.268820e-02
8.136064e-03
-1.017008e-02
-1.702751e-02
-1.027648e-02
9.328574e-03
3.707351e-02
6.576807e-02
9.200925e-02
1.231132e-01
1.763134e-01
2.656044e-01
3.829379e-01
4.893332e-01
5.288100e-01
4.623620e-01
3.019006e-01
1.187705e-01
1.499349e-02
6.949541e-02
2.901713e-01
6.015216e-01
8.764423e-01
9.943796e-01
8.940357e-01
5.950826e-01
1.826349e-01
-2.324118e-01
-5.556839e-01
0.000000e+00
0.000000e+00
0.000000e+00
0.000000e+00
0.000000e+00
0.000000e+00
0.000000e+00
0.000000e+00
0.000000e+00
0.000000e+00
0.000000e+00
0.000000e+00
0.000000e+00
0.000000e+00
0.000000e+00
0.000000e+00
0.000000e+00
0.000000e+00
0.000000e+00
0.000000e+00
0.000000e+00
0.000000e+00
0.000000e+00
0.000000e+00
0.000000e+00
0.000000e+00
0.000000e+00
0.000000e+00
0.000000e+00
0.000000e+00
0.000000e+00
0.000000e+00
0.000000e+00
0.000000e+00
0.000000e+00
0.000000e+00
0.000000e+00
0.000000e+00
0.000000e+00
0.000000e+00
0.000000e+00
0.000000e+00
0.000000e+00
0.000000e+00
0.000000e+00
0.000000e+00
0.000000e+00
0.000000e+00
0.000000e+00
0.000000e+00
0.000000e+00
0.000000e+00
0.000000e+00
0.000000e+00
0.000000e+00
0.000000e+00
0.000000e+00
0.000000e+00
0.000000e+00
0.000000e+00
0.000000e+00
