# cat exp/mono/decode_test/scoring/16.0.5.tra | utils/int2sym.pl -f 2- exp/mono/graph/words.txt | sed s:\<UNK\>::g | compute-wer --text --mode=present ark:exp/mono/decode_test/scoring/test_filt.txt ark,p:- >& exp/mono/decode_test/wer_16_0.5 
# Started at Thu Sep  1 17:36:47 IST 2022
#
# Accounting: time=0 threads=1
# Ended (code 0) at Thu Sep  1 17:36:47 IST 2022, elapsed time 0 seconds
